{
    "Encoding": "UTF-8",
    "KPlugin": {
        "Authors": [
            {
                "Email": "simon@ergotech.com",
                "Name": "Simon Redman",
                "Name[ca@valencia]": "Simon Redman",
                "Name[ca]": "Simon Redman",
                "Name[cs]": "Simon Redman",
                "Name[de]": "Simon Redman",
                "Name[en_GB]": "Simon Redman",
                "Name[es]": "Simon Redman",
                "Name[eu]": "Simon Redman",
                "Name[fi]": "Simon Redman",
                "Name[fr]": "Simon Redman",
                "Name[gl]": "Simon Redman",
                "Name[id]": "Simon Redman",
                "Name[it]": "Simon Redman",
                "Name[ko]": "Simon Redman",
                "Name[nl]": "Simon Redman",
                "Name[nn]": "Simon Redman",
                "Name[pl]": "Simon Redman",
                "Name[pt]": "Simon Redman",
                "Name[pt_BR]": "Simon Redman",
                "Name[sv]": "Simon Redman",
                "Name[uk]": "Simon Redman",
                "Name[x-test]": "xxSimon Redmanxx",
                "Name[zh_CN]": "Simon Redman",
                "Name[zh_TW]": "Simon Redman"
            }
        ],
        "Description": "Synchronize Contacts Between the Desktop and the Connected Device",
        "Description[ca@valencia]": "Sincronitza els contactes entre l'escriptori i el dispositiu connectat",
        "Description[ca]": "Sincronitza els contactes entre l'escriptori i el dispositiu connectat",
        "Description[cs]": "Synchronizovat kontakty mezi pracovní plochou a připojeným zařízením",
        "Description[de]": "Abgleich der Kontakte zwischen Arbeitsfläche und angeschlossenem Gerät",
        "Description[en_GB]": "Synchronise Contacts Between the Desktop and the Connected Device",
        "Description[es]": "Sincronizar contactos entre el equipo de escritorio y el dispositivo conectado",
        "Description[eu]": "Sinkronizatu kontaktuak mahaiganaren eta konektatutako gailuaren artean",
        "Description[fi]": "Synkronoi yhteystiedot työpöydän ja yhdistetyn laitteen välillä",
        "Description[fr]": "Synchroniser les contacts entre l'ordinateur et le périphérique connecté",
        "Description[gl]": "Sincronizar contactos entre o escritorio e o dispositivo conectado",
        "Description[id]": "Sinkronkan Kontak Antara Desktop dengan Perangkat Tersambung",
        "Description[it]": "Sincronizza i contatti tra il desktop e il dispositivo connesso",
        "Description[ko]": "데스크톱과 연결된 장치간 연락처 동기화",
        "Description[nl]": "Contactpersonen synchroniseren tussen het bureaublad en het verbonden apparaat",
        "Description[nn]": "Synkroniser kontaktar mellom skrivebordet og tilkopla eining",
        "Description[pl]": "Synchronizuj kontakty pomiędzy pulpitem i podłączonym urządzeniem",
        "Description[pt]": "Sincronizar os Contactos entre o Sistema e o Dispositivo Ligado",
        "Description[pt_BR]": "Sincroniza os contatos entre o sistema e o dispositivo conectado",
        "Description[sv]": "Synkronisera kontakter mellan skrivbordet och ansluten enhet",
        "Description[uk]": "Синхронізація контактів між комп'ютером і з'єднаним пристроєм",
        "Description[x-test]": "xxSynchronize Contacts Between the Desktop and the Connected Devicexx",
        "Description[zh_CN]": "同步电脑和已连接设备的通讯录",
        "Description[zh_TW]": "在電腦與連線裝置之間同步聯絡人",
        "EnabledByDefault": true,
        "Icon": "tag-people",
        "Id": "kdeconnect_contacts",
        "License": "GPL",
        "Name": "Contacts",
        "Name[ca@valencia]": "Contactes",
        "Name[ca]": "Contactes",
        "Name[cs]": "Kontakty",
        "Name[de]": "Kontakte",
        "Name[en_GB]": "Contacts",
        "Name[es]": "Contactos",
        "Name[eu]": "Kontaktuak",
        "Name[fi]": "Yhteystiedot",
        "Name[fr]": "Contacts",
        "Name[gl]": "Contactos",
        "Name[id]": "Contacts",
        "Name[it]": "Contatti",
        "Name[ko]": "연락처",
        "Name[nl]": "Contactpersonen",
        "Name[nn]": "Kontaktar",
        "Name[pl]": "Kontakty",
        "Name[pt]": "Contactos",
        "Name[pt_BR]": "Contatos",
        "Name[sv]": "Kontakter",
        "Name[uk]": "Контакти",
        "Name[x-test]": "xxContactsxx",
        "Name[zh_CN]": "联系人",
        "Name[zh_TW]": "聯絡人",
        "ServiceTypes": [
            "KdeConnect/Plugin"
        ],
        "Version": "0.1",
        "Website": "http://albertvaka.wordpress.com"
    },
    "X-KdeConnect-OutgoingPacketType": [
        "kdeconnect.contacts.request_all_uids_timestamps",
        "kdeconnect.contacts.request_vcards_by_uid"
    ],
    "X-KdeConnect-SupportedPacketType": [
        "kdeconnect.contacts.response_uids_timestamps",
        "kdeconnect.contacts.response_vcards"
    ]
}
