{
    "KPlugin": {
        "Authors": [
            {
                "Email": "albertvaka@gmail.com",
                "Name": "Albert Vaca",
                "Name[ar]": "Albert Vaca",
                "Name[ca@valencia]": "Albert Vaca",
                "Name[ca]": "Albert Vaca",
                "Name[cs]": "Albert Vaca",
                "Name[da]": "Albert Vaca",
                "Name[de]": "Albert Vaca",
                "Name[el]": "Albert Vaca",
                "Name[en_GB]": "Albert Vaca",
                "Name[es]": "Albert Vaca",
                "Name[et]": "Albert Vaca",
                "Name[eu]": "Albert Vaca",
                "Name[fi]": "Albert Vaca",
                "Name[fr]": "Albert Vaca",
                "Name[gl]": "Albert Vaca",
                "Name[id]": "Albert Vaca",
                "Name[it]": "Albert Vaca",
                "Name[ko]": "Albert Vaca",
                "Name[nl]": "Albert Vaca",
                "Name[nn]": "Albert Vaca",
                "Name[pl]": "Albert Vaca",
                "Name[pt]": "Albert Vaca",
                "Name[pt_BR]": "Albert Vaca",
                "Name[ru]": "Albert Vaca",
                "Name[sk]": "Albert Vaca",
                "Name[sr@ijekavian]": "Алберт Вака Синтора",
                "Name[sr@ijekavianlatin]": "Albert Vaka Sintora",
                "Name[sr@latin]": "Albert Vaka Sintora",
                "Name[sr]": "Алберт Вака Синтора",
                "Name[sv]": "Albert Vaca",
                "Name[tr]": "Albert Vaca",
                "Name[uk]": "Albert Vaca",
                "Name[x-test]": "xxAlbert Vacaxx",
                "Name[zh_CN]": "Albert Vaca",
                "Name[zh_TW]": "Albert Vaca"
            }
        ],
        "Description": "Show device's notifications on this computer and keep them in sync",
        "Description[ar]": "أظهر إخطارات الجهاز على هذا الحاسوب وأبقها متزامنة",
        "Description[ca@valencia]": "Mostra les notificacions del dispositiu a l'ordinador i les manté sincronitzades",
        "Description[ca]": "Mostra les notificacions del dispositiu a l'ordinador i les manté sincronitzades",
        "Description[cs]": "Zobrazit upozornění telefonu v počítači a udržovat je synchronizovaná",
        "Description[da]": "Vis enhedens bekendtgørelser på denne computer og hold dem synkroniseret",
        "Description[de]": "Benachrichtigungen des Geräts auf diesem Rechner anzeigen und abgleichen",
        "Description[el]": "Εμφάνιση ειδοποιήσεων συσκευής στον υπολογιστή αυτόν και συγχρονισμός τους",
        "Description[en_GB]": "Show device's notifications on this computer and keep them in sync",
        "Description[es]": "Mostrar notificaciones del dispositivo en este equipo y mantenerlas en sincronía",
        "Description[et]": "Seadme märguannete näitamine arvutis ja nende sünkroonis hoidmine",
        "Description[eu]": "Erakutsi gailuaren jakinarazpenak ordenagailu honetan eta mantendu sinkronizatuta",
        "Description[fi]": "Näytä laitteen ilmoitukset tällä tietokoneella ja pidä ne ajan tasalla",
        "Description[fr]": "Affichez les notifications du téléphone sur l'ordinateur et synchronisez-les",
        "Description[gl]": "Mostrar as notificacións do dispositivo neste computador e mantelas sincronizadas.",
        "Description[id]": "Tampilkan notifikasi perangkat pada komputer ini dan menjaganya tetap tersinkron",
        "Description[it]": "Mostra le notifiche del telefono sul tuo computer e tienile sincronizzate",
        "Description[ko]": "휴대폰 알림을 컴퓨터에 표시하고 동기화하기",
        "Description[nl]": "Apparaatmeldingen op deze computer tonen en ze gesynchroniseerd houden",
        "Description[nn]": "Vis telefonvarslingar på datamaskina og hald dei synkronisert",
        "Description[pl]": "Pokaż powiadomienia urządzenia na swoim komputerze i synchronizuj je",
        "Description[pt]": "Mostrar as notificações do dispositivo neste computador e mantê-las sincronizadas",
        "Description[pt_BR]": "Mostra as notificações do aparelho neste computador e as mantém sincronizadas",
        "Description[ru]": "Показ уведомлений с устройства на компьютере и их синхронизация",
        "Description[sk]": "Zobraziť oznámenia telefónu na vašom počítači a udržať ich synchronizované",
        "Description[sr@ijekavian]": "Приказује обавештења са уређаја на рачунару и одржава их ажурним",
        "Description[sr@ijekavianlatin]": "Prikazuje obaveštenja sa uređaja na računaru i održava ih ažurnim",
        "Description[sr@latin]": "Prikazuje obaveštenja sa uređaja na računaru i održava ih ažurnim",
        "Description[sr]": "Приказује обавештења са уређаја на рачунару и одржава их ажурним",
        "Description[sv]": "Visa enhetens underrättelser på datorn och håll dem synkroniserade",
        "Description[tr]": "Aygıtın bildirimlerini bilgisayarda göster ve eşzamanlı tut",
        "Description[uk]": "Показ сповіщень з пристрою на цьому комп’ютері та підтримання синхронізації даних сповіщень",
        "Description[x-test]": "xxShow device's notifications on this computer and keep them in syncxx",
        "Description[zh_CN]": "在电脑显示手机通知并保持同步",
        "Description[zh_TW]": "在電腦上顯示裝置通知並且保持同步",
        "EnabledByDefault": true,
        "Icon": "preferences-desktop-notification",
        "Id": "kdeconnect_notifications",
        "License": "GPL",
        "Name": "Receive notifications",
        "Name[ar]": "استقبل الإخطارات",
        "Name[ca@valencia]": "Recepció de les notificacions",
        "Name[ca]": "Recepció de les notificacions",
        "Name[cs]": "Přijímat oznámení",
        "Name[da]": "Modtag bekendtgørelser",
        "Name[de]": "Benachrichtigungen empfangen",
        "Name[el]": "Λήψη ειδοποιήσεων",
        "Name[en_GB]": "Receive notifications",
        "Name[es]": "Recibir notificaciones",
        "Name[et]": "Märguannete vastuvõtmine",
        "Name[eu]": "Jaso jakinarazpenak",
        "Name[fi]": "Vastaanota ilmoituksia",
        "Name[fr]": "Recevoir les notifications",
        "Name[gl]": "Recibir notificacións",
        "Name[id]": "Receive notifications",
        "Name[it]": "Ricevi notifiche",
        "Name[ko]": "알림 받기",
        "Name[nl]": "Meldingen ontvangen",
        "Name[nn]": "Få varslingar",
        "Name[pl]": "Otrzymywanie powiadomień",
        "Name[pt]": "Receber as notificações",
        "Name[pt_BR]": "Receber notificações",
        "Name[ru]": "Получение уведомлений",
        "Name[sk]": "Prijať upozornenia",
        "Name[sr@ijekavian]": "Пријем обавештења",
        "Name[sr@ijekavianlatin]": "Prijem obaveštenja",
        "Name[sr@latin]": "Prijem obaveštenja",
        "Name[sr]": "Пријем обавештења",
        "Name[sv]": "Ta emot underrättelser",
        "Name[tr]": "Bildirimleri al",
        "Name[uk]": "Отримати сповіщення",
        "Name[x-test]": "xxReceive notificationsxx",
        "Name[zh_CN]": "接收通知",
        "Name[zh_TW]": "收到通知",
        "ServiceTypes": [
            "KdeConnect/Plugin"
        ],
        "Version": "0.1",
        "Website": "http://albertvaka.wordpress.com"
    },
    "X-KdeConnect-OutgoingPacketType": [
        "kdeconnect.notification.request",
        "kdeconnect.notification.reply"
    ],
    "X-KdeConnect-SupportedPacketType": [
        "kdeconnect.notification"
    ]
}
